%YAML 1.1
%TAG !u! tag:unity3d.com,2011:
--- !u!114 &11400000
MonoBehaviour:
  m_ObjectHideFlags: 0
  m_CorrespondingSourceObject: {fileID: 0}
  m_PrefabInstance: {fileID: 0}
  m_PrefabAsset: {fileID: 0}
  m_GameObject: {fileID: 0}
  m_Enabled: 1
  m_EditorHideFlags: 0
  m_Script: {fileID: 11500000, guid: 05f19df4fa954b341824d15301bf921c, type: 3}
  m_Name: RunaJ
  m_EditorClassIdentifier: 
  nome: runaJ
  description: J
  logo: {fileID: 21300000, guid: 5a28ddf513d722743ae6bd1d2e5831ee, type: 3}
  modello3D: {fileID: 4839534722133512370, guid: a472243e8ebc2684ca9bfa46c84dc798, type: 3}
