%YAML 1.1
%TAG !u! tag:unity3d.com,2011:
--- !u!114 &11400000
MonoBehaviour:
  m_ObjectHideFlags: 0
  m_CorrespondingSourceObject: {fileID: 0}
  m_PrefabInstance: {fileID: 0}
  m_PrefabAsset: {fileID: 0}
  m_GameObject: {fileID: 0}
  m_Enabled: 1
  m_EditorHideFlags: 0
  m_Script: {fileID: 11500000, guid: 05f19df4fa954b341824d15301bf921c, type: 3}
  m_Name: RunaS
  m_EditorClassIdentifier: 
  nome: runaS
  description: S
  logo: {fileID: 21300000, guid: 855a278b85c49c641b342f428c650556, type: 3}
  modello3D: {fileID: 4839534722133512370, guid: 1b91a20de23123849b4e42ccce84e808, type: 3}
