%YAML 1.1
%TAG !u! tag:unity3d.com,2011:
--- !u!114 &11400000
MonoBehaviour:
  m_ObjectHideFlags: 0
  m_CorrespondingSourceObject: {fileID: 0}
  m_PrefabInstance: {fileID: 0}
  m_PrefabAsset: {fileID: 0}
  m_GameObject: {fileID: 0}
  m_Enabled: 1
  m_EditorHideFlags: 0
  m_Script: {fileID: 11500000, guid: 05f19df4fa954b341824d15301bf921c, type: 3}
  m_Name: Runa9
  m_EditorClassIdentifier: 
  nome: runa9
  description: 9
  logo: {fileID: 21300000, guid: 2658aaa6242e02e49a4aaffa797649bf, type: 3}
  modello3D: {fileID: 4839534722133512370, guid: 28f70ee6c27fbbe4bac8f569e0b3631c, type: 3}
