%YAML 1.1
%TAG !u! tag:unity3d.com,2011:
--- !u!114 &11400000
MonoBehaviour:
  m_ObjectHideFlags: 0
  m_CorrespondingSourceObject: {fileID: 0}
  m_PrefabInstance: {fileID: 0}
  m_PrefabAsset: {fileID: 0}
  m_GameObject: {fileID: 0}
  m_Enabled: 1
  m_EditorHideFlags: 0
  m_Script: {fileID: 11500000, guid: 05f19df4fa954b341824d15301bf921c, type: 3}
  m_Name: RunaR
  m_EditorClassIdentifier: 
  nome: runaR
  description: R
  logo: {fileID: 21300000, guid: 0c70e29cc1b8d024bb1d6cd92e7cd64b, type: 3}
  modello3D: {fileID: 4839534722133512370, guid: 3deba1764c08415469c2e30d05710814, type: 3}
