%YAML 1.1
%TAG !u! tag:unity3d.com,2011:
--- !u!65 &198756161
BoxCollider:
  m_ObjectHideFlags: 0
  m_CorrespondingSourceObject: {fileID: 0}
  m_PrefabInstance: {fileID: 0}
  m_PrefabAsset: {fileID: 0}
  m_GameObject: {fileID: 3371568787633791576}
  m_Material: {fileID: 0}
  m_IsTrigger: 0
  m_Enabled: 1
  serializedVersion: 2
  m_Size: {x: 0.5, y: 0.5, z: 0.5}
  m_Center: {x: 0, y: 0.000508, z: 0}
--- !u!114 &198756162
MonoBehaviour:
  m_ObjectHideFlags: 0
  m_CorrespondingSourceObject: {fileID: 0}
  m_PrefabInstance: {fileID: 0}
  m_PrefabAsset: {fileID: 0}
  m_GameObject: {fileID: 3371568787633791576}
  m_Enabled: 1
  m_EditorHideFlags: 0
  m_Script: {fileID: 11500000, guid: 89cbe3f217289174b9d97f5be9e241e0, type: 3}
  m_Name: 
  m_EditorClassIdentifier: 
  dati: {fileID: 11400000, guid: e525376f0814ed345a37d2e6179ee4df, type: 2}
  not: {fileID: 0}
--- !u!1001 &3372160046560153978
PrefabInstance:
  m_ObjectHideFlags: 0
  serializedVersion: 2
  m_Modification:
    m_TransformParent: {fileID: 0}
    m_Modifications:
    - target: {fileID: 1801278519735074, guid: 0b7451c289c0d9547a21ba7eb3340776, type: 3}
      propertyPath: m_Name
      value: secondaNotaStanza15
      objectReference: {fileID: 0}
    - target: {fileID: 4413510086684120, guid: 0b7451c289c0d9547a21ba7eb3340776, type: 3}
      propertyPath: m_RootOrder
      value: 0
      objectReference: {fileID: 0}
    - target: {fileID: 4413510086684120, guid: 0b7451c289c0d9547a21ba7eb3340776, type: 3}
      propertyPath: m_LocalPosition.x
      value: -210.96664
      objectReference: {fileID: 0}
    - target: {fileID: 4413510086684120, guid: 0b7451c289c0d9547a21ba7eb3340776, type: 3}
      propertyPath: m_LocalPosition.y
      value: -93.109
      objectReference: {fileID: 0}
    - target: {fileID: 4413510086684120, guid: 0b7451c289c0d9547a21ba7eb3340776, type: 3}
      propertyPath: m_LocalPosition.z
      value: 4188.386
      objectReference: {fileID: 0}
    - target: {fileID: 4413510086684120, guid: 0b7451c289c0d9547a21ba7eb3340776, type: 3}
      propertyPath: m_LocalRotation.w
      value: 1
      objectReference: {fileID: 0}
    - target: {fileID: 4413510086684120, guid: 0b7451c289c0d9547a21ba7eb3340776, type: 3}
      propertyPath: m_LocalRotation.x
      value: -0.00000003774895
      objectReference: {fileID: 0}
    - target: {fileID: 4413510086684120, guid: 0b7451c289c0d9547a21ba7eb3340776, type: 3}
      propertyPath: m_LocalRotation.y
      value: 0
      objectReference: {fileID: 0}
    - target: {fileID: 4413510086684120, guid: 0b7451c289c0d9547a21ba7eb3340776, type: 3}
      propertyPath: m_LocalRotation.z
      value: -0
      objectReference: {fileID: 0}
    - target: {fileID: 4413510086684120, guid: 0b7451c289c0d9547a21ba7eb3340776, type: 3}
      propertyPath: m_LocalEulerAnglesHint.x
      value: 0
      objectReference: {fileID: 0}
    - target: {fileID: 4413510086684120, guid: 0b7451c289c0d9547a21ba7eb3340776, type: 3}
      propertyPath: m_LocalEulerAnglesHint.y
      value: 0
      objectReference: {fileID: 0}
    - target: {fileID: 4413510086684120, guid: 0b7451c289c0d9547a21ba7eb3340776, type: 3}
      propertyPath: m_LocalEulerAnglesHint.z
      value: 0
      objectReference: {fileID: 0}
    m_RemovedComponents: []
  m_SourcePrefab: {fileID: 100100000, guid: 0b7451c289c0d9547a21ba7eb3340776, type: 3}
--- !u!1 &3371568787633791576 stripped
GameObject:
  m_CorrespondingSourceObject: {fileID: 1801278519735074, guid: 0b7451c289c0d9547a21ba7eb3340776, type: 3}
  m_PrefabInstance: {fileID: 3372160046560153978}
  m_PrefabAsset: {fileID: 0}
