%YAML 1.1
%TAG !u! tag:unity3d.com,2011:
--- !u!114 &11400000
MonoBehaviour:
  m_ObjectHideFlags: 0
  m_CorrespondingSourceObject: {fileID: 0}
  m_PrefabInstance: {fileID: 0}
  m_PrefabAsset: {fileID: 0}
  m_GameObject: {fileID: 0}
  m_Enabled: 1
  m_EditorHideFlags: 0
  m_Script: {fileID: 11500000, guid: 05f19df4fa954b341824d15301bf921c, type: 3}
  m_Name: soggetto 11
  m_EditorClassIdentifier: 
  nome: Subject 11
  description: 'Age: 36 Gender: male Discovery site: found huddled in a corner of
    the factory Experiment result: partial success P.N.: the transformation of this
    subject is both mind-blowing and creepy, in practice it is as if the body was
    half possessed while the other half came out of the subject''s chest, in a nutshell
    it is like wearing a half suit, however the half not possessed died instantly,
    possessed him for a while and then disappeared leaving the body in two different
    stages of decomposition.  '
  logo: {fileID: 0}
  modello3D: {fileID: 0}
