%YAML 1.1
%TAG !u! tag:unity3d.com,2011:
--- !u!114 &11400000
MonoBehaviour:
  m_ObjectHideFlags: 0
  m_CorrespondingSourceObject: {fileID: 0}
  m_PrefabInstance: {fileID: 0}
  m_PrefabAsset: {fileID: 0}
  m_GameObject: {fileID: 0}
  m_Enabled: 1
  m_EditorHideFlags: 0
  m_Script: {fileID: 11500000, guid: 05f19df4fa954b341824d15301bf921c, type: 3}
  m_Name: soggetto 9
  m_EditorClassIdentifier: 
  nome: Subject 9
  description: 'Age: 26 Gender: male Discovery site: UNREADBLE Experiment result:
    partial success P.N.: In this case the subject became what I assume is a lycan,
    with a pure black color and blood red eyes but the physical effort of the transformation
    was too much in fact the subject''s body literally fell apart when it was transformed
    again  '
  logo: {fileID: 0}
  modello3D: {fileID: 0}
