%YAML 1.1
%TAG !u! tag:unity3d.com,2011:
--- !u!114 &11400000
MonoBehaviour:
  m_ObjectHideFlags: 0
  m_CorrespondingSourceObject: {fileID: 0}
  m_PrefabInstance: {fileID: 0}
  m_PrefabAsset: {fileID: 0}
  m_GameObject: {fileID: 0}
  m_Enabled: 1
  m_EditorHideFlags: 0
  m_Script: {fileID: 11500000, guid: 05f19df4fa954b341824d15301bf921c, type: 3}
  m_Name: Giornale2
  m_EditorClassIdentifier: 
  nome: 'Newspaper article: 1 month after'
  description: '1 month after the closing of the J.Paul asylum The disappearances
    continue in the city of AngelVille, after the recent closure of the asylum disappearances
    of some former employees have frightened the citizens, who now want to go further
    fund in the matter. In addition, the number of people who disappeared within
    a year rises to 22 also reporter Richard Brown, writer of last month''s article
    on the closure of the asylum, one still wonders how it is possible that nothing
    has yet been learned about disappearances. These are the words of the agent of
    the district of AngelVille: "My team and I are at work day and night to try to
    understand more about the disappearances, we are also guarding the structure,
    place where we think missing citizens can be found, even if we don''t have it
    yet had positive feedback in the research. We tried to break in, but the doors
    are shatterproof, and the window panes are reinforced. My team and I promise
    citizens and relatives of the missing that we will get to the top of this situation,
    we advise you in any case to be careful on the streets of the city and when you
    are at home to always lock them. " The agent''s words seem to reassure citizens
    to have an answer as soon as possible possible, but the responsible person still
    has to be found!'
  logo: {fileID: 0}
  modello3D: {fileID: 0}
