%YAML 1.1
%TAG !u! tag:unity3d.com,2011:
--- !u!114 &11400000
MonoBehaviour:
  m_ObjectHideFlags: 0
  m_CorrespondingSourceObject: {fileID: 0}
  m_PrefabInstance: {fileID: 0}
  m_PrefabAsset: {fileID: 0}
  m_GameObject: {fileID: 0}
  m_Enabled: 1
  m_EditorHideFlags: 0
  m_Script: {fileID: 11500000, guid: 05f19df4fa954b341824d15301bf921c, type: 3}
  m_Name: Nota stanza 12
  m_EditorClassIdentifier: 
  nome: Room 12 Note
  description: Finally I found a world to be able to carry out my experiment with
    the soul, I can't wait to start, I haven't had positive feedback yet in the previous
    worlds but this can be the perfect one.
  logo: {fileID: 0}
  modello3D: {fileID: 0}
