%YAML 1.1
%TAG !u! tag:unity3d.com,2011:
--- !u!114 &11400000
MonoBehaviour:
  m_ObjectHideFlags: 0
  m_CorrespondingSourceObject: {fileID: 0}
  m_PrefabInstance: {fileID: 0}
  m_PrefabAsset: {fileID: 0}
  m_GameObject: {fileID: 0}
  m_Enabled: 1
  m_EditorHideFlags: 0
  m_Script: {fileID: 11500000, guid: 05f19df4fa954b341824d15301bf921c, type: 3}
  m_Name: Nota stanza 22
  m_EditorClassIdentifier: 
  nome: Room 22 note
  description: A police officer came by last night, I saw him from my office window
    with with a flashlight in his hand and a dog on a leash. Maybe they suspect something.
    I have to find a way to close all the entrances.
  logo: {fileID: 0}
  modello3D: {fileID: 0}
